"id","value"
"00","Total"
"1","Agronomía, veterinaria y afines"
"2","Bellas artes"
"3","Ciencias de la educación"
"4","Ciencias de la salud"
"5","Ciencias sociales y humanas"
"6","Ingeniería, arquitectura, urbanismo y afines"
"7","Matemáticas y ciencias naturales"
"8","Sin clasificar"
