"id","value"
"00","Total"
"01","Agropecuario"
"02","Servicios"
"03","Industrial"
"04","Transporte"
"05","Comercio"
"06","Financiero"
"07","Construcción"
"08","Minero y Energético"
"09","Solidario"
"10","Comunicaciones"
