"id","name","short_name","hex"
1,"Poner fin a la pobreza en todas sus formas en todo el mundo","Fin de la pobreza","#e5243b"
2,"Poner fin al hambre, lograr la seguridad alimentaria y la mejora de la nutrición y promover la agricultura sostenible","Hambre cero","#e5b735"
3,"Garantizar una vida sana y promover el bienestar para todos entodas las edades","Salud y bienestar","#4c9f38"
4,"Garantizar una educación inclusiva, equitativa y de calidad y promover oportunidades de aprendizaje durante toda la vida para todos","Educación de calidad","#c5192d"
5,"Lograr la igualdad entre los géneros y el empoderamiento de todas las mujeres y niñas","Igualdad de género","#ff3a21"
6,"Garantizar la disponibilidad de agua y su ordenación sostenible y el saneamiento para todos","Agua limpia y saneamiento","#26bde2"
7,"Garantizar el acceso a una energía asequible, segura, sostenible y moderna para todos","Energía asequible y no contaminante","#fcc30b"
8,"Promover el crecimiento económico sostenido, inclusivo y sostenible, el empleo pleno y productivo y el trabajo decente para todos","Trabajo decente y crecimiento económico","#a21942"
9,"Construir infraestructura resiliente, promover la industrialización inclusiva y sostenible y fomentar la innovación","Industria, innovación e infraestructura","#fd6925"
10,"Reducir la desigualdad en y entre los países","Reducción de las desigualdades","#dd1367"
11,"Lograr que las ciudades y los asentamientos humanos sean inclusivos, seguros, resilientes y sostenibles","Ciudades y comunidades sostenibles","#fd9d24"
12,"Garantizar modalidades de consumo y producción sostenibles","Producción y consumo responsables","#c9992d"
13,"Adoptar medidas urgentes para combatir el cambio climático y sus efectos","Acción por el clima","#3f7e44"
14,"Conservar y utilizar en forma sostenible los océanos, los mares y los recursos marinos para el desarrollo sostenible","Vida submarina","#0a97d9"
15,"Proteger, restablecer y promover el uso sostenible de los ecosistemas terrestres, efectuar una ordenación sostenible de los bosques, luchar contra la desertificación, detener y revertir la degradación de las tierras y poner freno a la pérdida de la diversidad biológica","Vida de ecosistemas terrestres","#56c02b"
16,"Promover sociedades pacíficas e inclusivas para el desarrollo sostenible, facilitar el acceso a la justicia para todos y crear instituciones eficaces, responsables e inclusivas a todos los niveles","Paz, justicia e instituciones sólidas","#00689d"
17,"Fortalecer los medios de ejecución y revitalizar la alianza mundial para el desarrollo sostenible","Alianzas para lograr los objetivos","#19486a"
