TIME,OBS,COUNTRY,DES_GEO_DEPTOS
2005,25.45907921,CO,
2006,24.38591782,CO,
2007,23.31273608,CO,
2008,22.5997512,CO,
2009,21.8868129,CO,
2010,21.17392116,CO,
2011,20.46107597,CO,
2012,19.74827733,CO,
2013,19.25327558,CO,
2014,19.20419792,CO,
2015,18.73,CO,
2005,22.6189954,,05
2005,20.3763057,,08
2005,19.29792766,,11
2005,29.38339846,,13
2005,24.70179694,,15
2005,19.19539492,,17
2005,33.51649417,,18
2005,32.41673093,,19
2005,26.96568485,,20
2005,35.00029926,,23
2005,18.81791998,,25
2005,62.47594622,,27
2005,23.71022391,,41
2005,43.33326274,,44
2005,25.03363784,,47
2005,38.47628878,,50
2005,32.97624554,,52
2005,18.02663824,,54
2005,19.40992968,,63
2005,22.69436189,,66
2005,19.59753801,,68
2005,30.15174388,,70
2005,25.78173219,,73
2005,19.76791507,,76
2005,36.54862786,,81
2005,36.95840125,,85
2005,31.13244631,,86
2005,22.83033703,,88
2006,21.76767425,,05
2006,20.06467478,,08
2006,18.39724395,,11
2006,28.81514972,,13
2006,23.87620766,,15
2006,18.34585593,,17
2006,32.55453519,,18
2006,31.57659494,,19
2006,26.26742873,,20
2006,34.41835386,,23
2006,18.43166523,,25
2006,60.5320242,,27
2006,23.14672539,,41
2006,42.79810901,,44
2006,24.55201164,,47
2006,37.69441783,,50
2006,32.33865059,,52
2006,17.61075855,,54
2006,18.36033317,,63
2006,21.49693895,,66
2006,18.93772567,,68
2006,29.8741026,,70
2006,25.23671528,,73
2006,19.04844789,,76
2006,35.74156665,,81
2006,36.45142592,,85
2006,30.27063484,,86
2006,22.37795974,,88
2007,20.91649877,,05
2007,19.75310484,,08
2007,17.4966984,,11
2007,28.24698498,,13
2007,23.05069623,,15
2007,17.49627516,,17
2007,31.59265887,,18
2007,30.73654774,,19
2007,25.56942312,,20
2007,33.83649919,,23
2007,18.04546433,,25
2007,58.588788,,27
2007,22.58328058,,41
2007,42.26300494,,44
2007,24.07046369,,47
2007,36.91263046,,50
2007,31.70114823,,52
2007,17.19491742,,54
2007,17.31064433,,63
2007,20.29968604,,66
2007,18.27802423,,68
2007,29.59645475,,70
2007,24.69112376,,73
2007,18.32910413,,76
2007,34.93468991,,81
2007,35.94455161,,85
2007,29.40895375,,86
2007,21.92555515,,88
2008,20.2415106,,05
2008,19.44701576,,08
2008,16.93007868,,11
2008,27.87735953,,13
2008,22.39259904,,15
2008,16.92400513,,17
2008,30.94550686,,18
2008,30.11440243,,19
2008,25.05102461,,20
2008,33.35084241,,23
2008,17.7603146,,25
2008,57.23601983,,27
2008,22.10745726,,41
2008,41.59678613,,44
2008,23.73824468,,47
2008,36.28196567,,50
2008,31.35266842,,52
2008,16.83881148,,54
2008,16.65470126,,63
2008,19.53315188,,66
2008,17.77868789,,68
2008,29.35839744,,70
2008,24.0523472,,73
2008,17.78612121,,76
2008,34.32773342,,81
2008,35.49139934,,85
2008,28.90279576,,86
2008,21.63605033,,88
2009,19.56665072,,05
2009,19.14097955,,08
2009,16.36350129,,11
2009,27.50777064,,13
2009,21.73458822,,15
2009,16.351743,,17
2009,30.29843723,,18
2009,29.49229909,,19
2009,24.53278967,,20
2009,32.86523946,,23
2009,17.4751863,,25
2009,55.88356137,,27
2009,21.63168832,,41
2009,40.93059359,,44
2009,23.40607225,,47
2009,35.65134691,,50
2009,31.00419046,,52
2009,16.48273909,,54
2009,15.99878133,,63
2009,18.76664109,,66
2009,17.27947764,,68
2009,29.12035018,,70
2009,23.4136178,,73
2009,17.24326571,,76
2009,33.72085184,,81
2009,35.03833975,,85
2009,28.39668632,,86
2009,21.34653803,,88
2010,18.8919191,,05
2010,18.8349962,,08
2010,15.79696621,,11
2010,27.13821831,,13
2010,21.07666374,,15
2010,15.77948877,,17
2010,29.65144998,,18
2010,28.87023772,,19
2010,24.01471822,,20
2010,32.37969034,,23
2010,17.19007944,,25
2010,54.5314125,,27
2010,21.15597373,,41
2010,40.26442732,,44
2010,23.07394638,,47
2010,35.02077419,,50
2010,30.65571436,,52
2010,16.12670024,,54
2010,15.34288454,,63
2010,18.00015366,,66
2010,16.78039343,,68
2010,28.88231296,,70
2010,22.77493554,,73
2010,16.7005376,,76
2010,33.11404515,,81
2010,34.5853728,,85
2010,27.89062541,,86
2010,21.05701823,,88
2011,18.21731571,,05
2011,18.52906569,,08
2011,15.23047345,,11
2011,26.76870252,,13
2011,20.41882559,,15
2011,15.20724244,,17
2011,29.00454508,,18
2011,28.24821832,,19
2011,23.4968102,,20
2011,31.89419504,,23
2011,16.904994,,25
2011,53.17957312,,27
2011,20.6803135,,41
2011,39.59828731,,44
2011,22.74186706,,47
2011,34.39024749,,50
2011,30.30724012,,52
2011,15.77069494,,54
2011,14.6870109,,63
2011,17.2336896,,66
2011,16.2814352,,68
2011,28.64428579,,70
2011,22.13630042,,73
2011,16.15793682,,76
2011,32.50731335,,81
2011,34.13249847,,85
2011,27.38461304,,86
2011,20.76749095,,88
2012,17.54284049,,05
2012,18.22318801,,08
2012,14.664023,,11
2012,26.39922328,,13
2012,19.76107375,,15
2012,14.63500401,,17
2012,28.35772253,,18
2012,27.62624088,,19
2012,22.97906551,,20
2012,31.40875355,,23
2012,16.61993,,25
2012,51.82804312,,27
2012,20.20470761,,41
2012,38.93217357,,44
2012,22.40983429,,47
2012,33.75976681,,50
2012,29.95876773,,52
2012,15.41472317,,54
2012,14.0311604,,63
2012,16.46724891,,66
2012,15.78260292,,68
2012,28.40626866,,70
2012,21.49771244,,73
2012,15.61546334,,76
2012,31.90065642,,81
2012,33.67971672,,85
2012,26.8786492,,86
2012,20.47795618,,88
2013,17.34672826,,05
2013,18.5778711,,08
2013,13.56098843,,11
2013,26.13759904,,13
2013,18.91768624,,15
2013,14.31382161,,17
2013,27.85880375,,18
2013,27.24337193,,19
2013,22.42250578,,20
2013,30.91953393,,23
2013,16.42474093,,25
2013,51.51936021,,27
2013,19.75765921,,41
2013,39.01264968,,44
2013,22.66943431,,47
2013,33.10037288,,50
2013,29.37122948,,52
2013,15.0467055,,54
2013,13.35838167,,63
2013,15.97289075,,66
2013,15.91315819,,68
2013,28.58629681,,70
2013,21.47877999,,73
2013,14.84773384,,76
2013,31.40485963,,81
2013,32.87006124,,85
2013,26.87727072,,86
2013,19.47116369,,88
2014,17.35687172,,05
2014,18.57860777,,08
2014,13.57772922,,11
2014,26.10988126,,13
2014,18.76949594,,15
2014,13.84512376,,17
2014,27.56785343,,18
2014,27.06275582,,19
2014,22.50817297,,20
2014,30.75456603,,23
2014,16.23537887,,25
2014,51.91412851,,27
2014,19.75644544,,41
2014,39.68412257,,44
2014,22.51692996,,47
2014,33.46302974,,50
2014,29.40245294,,52
2014,15.025646,,54
2014,13.35,,63
2014,15.82347722,,66
2014,15.91741071,,68
2014,28.75283905,,70
2014,21.50529516,,73
2014,14.71222915,,76
2014,31.33818712,,81
2014,32.81384628,,85
2014,26.96081068,,86
2014,21.04251075,,88
2005,51.1251454,,90
2006,50.2192857,,90
2007,49.3136329,,90
2008,48.8629783,,90
2009,48.4123746,,90
2010,47.9618221,,90
2011,47.5113206,,90
2012,47.0608701,,90
2013,48.2417915,,90
2014,49.8155288,,90
