TIME,OBS,COUNTRY
2001,0.387470839,CO
2002,1.225972687,CO
2003,2.626685885,CO
2004,4.041409687,CO
2005,3.43679651,CO
2006,5.425766899,CO
2007,5.632787131,CO
2008,2.325664316,CO
2009,0.458988314,CO
2010,2.759237629,CO
2011,5.350990615,CO
2012,2.844018772,CO
2013,3.673859492,CO
2014,3.201509706,CO
2015,1.896260825,CO
